[
  {
    "title": "Anno 1800",
    "year": "2019",
    "rating": "9.2",
    "genre": "Strategy"
  },
  {
    "title": "GTA SA",
    "year": "2014",
    "rating": "9.1",
    "genre": "Action"
  },
  {
    "title": "GTA 5",
    "year": "2014",
    "rating": "9.5",
    "genre": "Shooter"
  },
  {
    "title": "FIFA 2019",
    "year": "2018",
    "rating": "9.1",
    "genre": "Sport"
  },
  {
    "title": "FIFA 2018",
    "year": "2017",
    "rating": "9.4",
    "genre": "Sport"
  },
  {
    "title": "FIFA 2017",
    "year": "2016",
    "rating": "9.0",
    "genre": "Sport"
  },
  {
    "title": "Cesar 3",
    "year": "2011",
    "rating": "8.9",
    "genre": "Strategy"
  },
  {
    "title": "Need for Speed Most Wanted",
    "year": "2008",
    "rating": "9.3",
    "genre": "Racing"
  },
  {
    "title": "Tetris",
    "year": "1984",
    "rating": "9.8",
    "genre": "Logic"
  }
]
